module gitlab.com/gitlab-org/gitlab-shell/v14

go 1.18

require (
	github.com/golang-jwt/jwt/v5 v5.0.0
	github.com/grpc-ecosystem/go-grpc-middleware v1.4.0
	github.com/grpc-ecosystem/go-grpc-prometheus v1.2.0
	github.com/hashicorp/go-retryablehttp v0.7.4
	github.com/mattn/go-shellwords v1.0.12
	github.com/mikesmitty/edkey v0.0.0-20170222072505-3356ea4e686a
	github.com/openshift/gssapi v0.0.0-20161010215902-5fb4217df13b
	github.com/otiai10/copy v1.12.0
	github.com/pires/go-proxyproto v0.7.0
	github.com/prometheus/client_golang v1.16.0
	github.com/sirupsen/logrus v1.9.3
	github.com/stretchr/testify v1.8.4
	gitlab.com/gitlab-org/gitaly/v16 v16.1.2
	gitlab.com/gitlab-org/labkit v1.19.0
	golang.org/x/crypto v0.11.0
	golang.org/x/sync v0.3.0
	google.golang.org/grpc v1.56.2
	google.golang.org/protobuf v1.31.0
	gopkg.in/yaml.v3 v3.0.1
)

require (
	cloud.google.com/go v0.110.0 // indirect
	cloud.google.com/go/compute v1.19.1 // indirect
	cloud.google.com/go/compute/metadata v0.2.3 // indirect
	cloud.google.com/go/monitoring v1.13.0 // indirect
	cloud.google.com/go/profiler v0.1.0 // indirect
	cloud.google.com/go/trace v1.9.0 // indirect
	contrib.go.opencensus.io/exporter/stackdriver v0.13.14 // indirect
	github.com/DataDog/datadog-go v4.4.0+incompatible // indirect
	github.com/DataDog/sketches-go v1.0.0 // indirect
	github.com/Microsoft/go-winio v0.6.0 // indirect
	github.com/aws/aws-sdk-go v1.44.200 // indirect
	github.com/beevik/ntp v1.0.0 // indirect
	github.com/beorn7/perks v1.0.1 // indirect
	github.com/census-instrumentation/opencensus-proto v0.4.1 // indirect
	github.com/cespare/xxhash/v2 v2.2.0 // indirect
	github.com/client9/reopen v1.0.0 // indirect
	github.com/davecgh/go-spew v1.1.1 // indirect
	github.com/go-ole/go-ole v1.2.6 // indirect
	github.com/gogo/protobuf v1.3.2 // indirect
	github.com/golang/groupcache v0.0.0-20210331224755-41bb18bfe9da // indirect
	github.com/golang/protobuf v1.5.3 // indirect
	github.com/google/go-cmp v0.5.9 // indirect
	github.com/google/pprof v0.0.0-20230111200839-76d1ae5aea2b // indirect
	github.com/google/uuid v1.3.0 // indirect
	github.com/googleapis/enterprise-certificate-proxy v0.2.3 // indirect
	github.com/googleapis/gax-go/v2 v2.7.1 // indirect
	github.com/hashicorp/go-cleanhttp v0.5.2 // indirect
	github.com/hashicorp/yamux v0.1.1 // indirect
	github.com/jmespath/go-jmespath v0.4.0 // indirect
	github.com/kr/text v0.2.0 // indirect
	github.com/lightstep/lightstep-tracer-common/golang/gogo v0.0.0-20210210170715-a8dfcb80d3a7 // indirect
	github.com/lightstep/lightstep-tracer-go v0.25.0 // indirect
	github.com/lufia/plan9stats v0.0.0-20211012122336-39d0f177ccd0 // indirect
	github.com/mattn/go-colorable v0.1.13 // indirect
	github.com/matttproud/golang_protobuf_extensions v1.0.4 // indirect
	github.com/oklog/ulid/v2 v2.0.2 // indirect
	github.com/onsi/ginkgo v1.16.5 // indirect
	github.com/onsi/gomega v1.20.1 // indirect
	github.com/opentracing/opentracing-go v1.2.0 // indirect
	github.com/philhofer/fwd v1.1.1 // indirect
	github.com/pkg/errors v0.9.1 // indirect
	github.com/pmezard/go-difflib v1.0.0 // indirect
	github.com/power-devops/perfstat v0.0.0-20210106213030-5aafc221ea8c // indirect
	github.com/prometheus/client_model v0.3.0 // indirect
	github.com/prometheus/common v0.42.0 // indirect
	github.com/prometheus/procfs v0.10.1 // indirect
	github.com/prometheus/prometheus v0.42.0 // indirect
	github.com/rogpeppe/go-internal v1.9.0 // indirect
	github.com/sebest/xff v0.0.0-20210106013422-671bd2870b3a // indirect
	github.com/shirou/gopsutil/v3 v3.22.8 // indirect
	github.com/tinylib/msgp v1.1.2 // indirect
	github.com/tklauser/go-sysconf v0.3.10 // indirect
	github.com/tklauser/numcpus v0.4.0 // indirect
	github.com/uber/jaeger-client-go v2.30.0+incompatible // indirect
	github.com/uber/jaeger-lib v2.4.1+incompatible // indirect
	github.com/yusufpapurcu/wmi v1.2.2 // indirect
	go.opencensus.io v0.24.0 // indirect
	go.uber.org/atomic v1.10.0 // indirect
	golang.org/x/mod v0.8.0 // indirect
	golang.org/x/net v0.10.0 // indirect
	golang.org/x/oauth2 v0.7.0 // indirect
	golang.org/x/sys v0.9.0 // indirect
	golang.org/x/text v0.10.0 // indirect
	golang.org/x/time v0.3.0 // indirect
	golang.org/x/tools v0.6.0 // indirect
	golang.org/x/xerrors v0.0.0-20220907171357-04be3eba64a2 // indirect
	google.golang.org/api v0.114.0 // indirect
	google.golang.org/appengine v1.6.7 // indirect
	google.golang.org/genproto v0.0.0-20230410155749-daa745c078e1 // indirect
	gopkg.in/DataDog/dd-trace-go.v1 v1.32.0 // indirect
)

replace golang.org/x/crypto => gitlab.com/gitlab-org/golang-crypto v0.0.0-20230504124748-218ebedc75c6

exclude github.com/prometheus/client_golang v1.12.1
